F:\Intellij\workspace\furwalkbot\target\generated-sources\jooq\de\monty\jooq\codegen\Keys.java
F:\Intellij\workspace\furwalkbot\target\generated-sources\jooq\de\monty\newsbot\jooq\codegen\tables\records\SqliteSequenceRecord.java
F:\Intellij\workspace\furwalkbot\target\generated-sources\jooq\de\monty\newsbot\jooq\codegen\tables\records\UserRecord.java
F:\Intellij\workspace\furwalkbot\target\generated-sources\jooq\de\monty\newsbot\jooq\codegen\DefaultCatalog.java
F:\Intellij\workspace\furwalkbot\target\generated-sources\jooq\de\monty\newsbot\jooq\codegen\Keys.java
F:\Intellij\workspace\furwalkbot\target\generated-sources\jooq\de\monty\newsbot\jooq\codegen\tables\User.java
F:\Intellij\workspace\furwalkbot\target\generated-sources\jooq\de\monty\jooq\codegen\DefaultSchema.java
F:\Intellij\workspace\furwalkbot\target\generated-sources\jooq\de\monty\jooq\codegen\tables\User.java
F:\Intellij\workspace\furwalkbot\target\generated-sources\jooq\de\monty\jooq\codegen\Tables.java
F:\Intellij\workspace\furwalkbot\target\generated-sources\jooq\de\monty\newsbot\jooq\codegen\DefaultSchema.java
F:\Intellij\workspace\furwalkbot\target\generated-sources\jooq\de\monty\jooq\codegen\tables\records\UserRecord.java
F:\Intellij\workspace\furwalkbot\target\generated-sources\jooq\de\monty\jooq\codegen\DefaultCatalog.java
F:\Intellij\workspace\furwalkbot\target\generated-sources\jooq\de\monty\jooq\codegen\tables\records\SqliteSequenceRecord.java
F:\Intellij\workspace\furwalkbot\target\generated-sources\jooq\de\monty\newsbot\jooq\codegen\tables\SqliteSequence.java
F:\Intellij\workspace\furwalkbot\target\generated-sources\jooq\de\monty\jooq\codegen\tables\SqliteSequence.java
F:\Intellij\workspace\furwalkbot\target\generated-sources\jooq\de\monty\newsbot\jooq\codegen\Tables.java
